^C:\USERS\AMADI\DOCUMENTS\STUDIA\IV\PAMSI\LABORATORIUM\LISTY\PAMSI\LISTA10\WARCABY\WARCABY\DEBUG\STDAFX.OBJ|C:\USERS\AMADI\DOCUMENTS\STUDIA\IV\PAMSI\LABORATORIUM\LISTY\PAMSI\LISTA10\WARCABY\WARCABY\DEBUG\WARCABY.OBJ
C:\USERS\AMADI\DOCUMENTS\STUDIA\IV\PAMSI\LABORATORIUM\LISTY\PAMSI\LISTA10\WARCABY\DEBUG\WARCABY.ILK
C:\USERS\AMADI\DOCUMENTS\STUDIA\IV\PAMSI\LABORATORIUM\LISTY\PAMSI\LISTA10\WARCABY\DEBUG\WARCABY.EXE
C:\USERS\AMADI\DOCUMENTS\STUDIA\IV\PAMSI\LABORATORIUM\LISTY\PAMSI\LISTA10\WARCABY\DEBUG\WARCABY.PDB
